[
  {
    "declaration": {
      "open": "true",
      "title": "Внимание!",
      "description": "Ожидаем актуальное расписание!"
    },
    "bus": {
      "time": "Время отправления из Мачулищ указано с улицы Дружная(конечная)!",
      "streets": [
        {
          "street": ["улица Ванеева", "Vaneeva street"],
          "id": "0"
        },
        {
          "street": ["Партизанский проспект", "Partisan Avenue"],
          "id": "1"
        },
        {
          "street": ["улица Аранская", "Aranskay street"],
          "id": "2"
        },
        {
          "street": ["улица Могилёвская", "Mogilevskay street"],
          "id": "3"
        },
        {
          "street": ["улица Чкалова", "Chkalova street"],
          "id": "4"
        },
        {
          "street": ["улица Брилевская", "Brilevskay street"],
          "id": "5"
        },
        {
          "street": ["улица Вирская", "Virskay street"],
          "id": "6"
        },
        {
          "street": ["улица Лейтенанта Кижеватова", "Lieutenant Kizhevatov street"],
          "id": "7"
        },
        {
          "street": ["автодорога Р-23", "highway P-23"],
          "id": "8"
        },
        {
          "street": ["автодорога Н-9041", "highway Н-9041"],
          "id": "9"
        },
        {
          "street": ["п.Мачулищи", "village Machulishi"],
          "id": "10"
        }
      ],
      "schedule": {
        "fromMinsk": {
          "weekdays": ["05:02", "06:43", "08:40", "10:40", "13:11", "17:01"],
          "weekends": ["06:43", "08:35", "15:07", "16:51", "19:12"]
        },
        "toMinsk": {
          "weekdays": ["05:47", "07:35", "09:30", "11:33", "14:01", "17:52"],
          "weekends": ["07:35", "09:30", "15:56", "17:40", "20:00"]
        }
      }
    },
    "minibus": {
      "price": "2.50",
      "toMinsk": {
        "будни": {
          "hours": [],
          "minutes": []
        },
        "суббота": {
          "hours": [],
          "minutes": []
        },
        "воскресенье/праздники": {
          "hours": [],
          "minutes": []
        }
      },
      "fromMinsk": {
        "будни": {
          "hours": [],
          "minutes": []
        },
        "суббота": {
          "hours": [],
          "minutes": []
        },
        "воскресенье/праздники": {
          "hours": [],
          "minutes": []
        }
      }
    }
  }  
]
